Homework 7 solutions
…
df_list <- list()

for(i in 1:length(urls)){
  df_list[[i]] <- read_html(urls[i]) |>
    html_element("table") |>
    html_table(header = TRUE, fill = TRUE)
}

df_list[[1]]

# A tibble: 67 × 11
   Date    `Start (ET)` `Visitor/Neutral`   PTS `Home/Neutral`   PTS ``    ``   
   <chr>   <chr>        <chr>             <int> <chr>          <int> <chr> <chr>
 1 Tue, D… 7:00p        Golden State War…    99 Brooklyn Nets    125 Box … ""   
 2 Tue, D… 10:00p       Los Angeles Clip…   116 Los Angeles L…   109 Box … ""   
 3 Wed, D… 7:00p        Charlotte Hornets   114 Cleveland Cav…   121 Box … ""   
 4 Wed, D… 7:00p        New York Knicks     107 Indiana Pacers   121 Box … ""   
 5 Wed, D… 7:00p        Miami Heat          107 Orlando Magic    113 Box … ""   
 6 Wed, D… 7:00p        Washington Wizar…   107 Philadelphia …   113 Box … ""   
 7 Wed, D… 7:30p        New Orleans Peli…   113 Toronto Rapto…    99 Box … ""   
 8 Wed, D… 7:30p        Milwaukee Bucks     121 Boston Celtics   122 Box … ""   
 9 Wed, D… 8:00p        Atlanta Hawks       124 Chicago Bulls    104 Box … ""   
10 Wed, D… 8:00p        San Antonio Spurs   131 Memphis Grizz…   119 Box … ""   
# ℹ 57 more rows
# ℹ 3 more variables: Attend. <chr>, Arena <chr>, Notes <lgl>

df_list[[2]]

# A tibble: 222 × 11
   Date    `Start (ET)` `Visitor/Neutral`   PTS `Home/Neutral`   PTS ``    ``   
   <chr>   <chr>        <chr>             <int> <chr>          <int> <chr> <chr>
 1 Fri, J… 7:00p        Memphis Grizzlies   108 Charlotte Hor…    93 Box … ""   
 2 Fri, J… 7:00p        Miami Heat           83 Dallas Maveri…    93 Box … ""   
 3 Fri, J… 7:00p        Boston Celtics       93 Detroit Pisto…    96 Box … ""   
 4 Fri, J… 7:30p        Atlanta Hawks       114 Brooklyn Nets     96 Box … ""   
 5 Fri, J… 8:00p        Chicago Bulls        96 Milwaukee Buc…   126 Box … ""   
 6 Fri, J… 8:00p        Washington Wizar…   130 Minnesota Tim…   109 Box … ""   
 7 Fri, J… 8:00p        Los Angeles Lake…   109 San Antonio S…   103 Box … ""   
 8 Fri, J… 9:00p        Phoenix Suns        106 Denver Nuggets   103 Box … ""   
 9 Fri, J… 9:00p        Los Angeles Clip…   100 Utah Jazz        106 Box … ""   
10 Fri, J… 10:30p       Portland Trail B…   123 Golden State …    98 Box … ""   
# ℹ 212 more rows
# ℹ 3 more variables: Attend. <chr>, Arena <chr>, Notes <lgl>
…
