Lecture 14: Reshaping data
…
Want code that looks like this:

lm(score ~ GroupAssignment + stage, data = sc_data)

Problem: We don’t have a column for stage! Or a column for score!

pivot_longer

sc_data |>
  pivot_longer(cols = c(sc_pre, sc_post),
               names_to = "stage",
               values_to = "score")

# A tibble: 568 × 4
     RID GroupAssignment stage   score
   <int> <chr>           <chr>   <dbl>
 1     1 Control         sc_pre   3.9 
 2     1 Control         sc_post  3.8 
 3     2 Direct          sc_pre   5.15
 4     2 Direct          sc_post  5.26
 5     3 Indirect        sc_pre   4.1 
 6     3 Indirect        sc_post  4.15
 7     4 Control         sc_pre   4.65
 8     4 Control         sc_post  5.1 
 9     5 Direct          sc_pre   3.65
10     5 Direct          sc_post  3.6 
# ℹ 558 more rows
…
df |> 
  pivot_longer(
    cols = bp1:bp2,
    names_to = "measurement",
    values_to = "value"
  )

(Image from R for Data Science)

pivot_longer

Another example:

# A tibble: 260 × 38
   Adult (15+) literacy rate …¹ `1975` `1976` `1977` `1978` `1979` `1980` `1981`
   <chr>                         <dbl>  <dbl>  <dbl>  <dbl>  <dbl>  <dbl>  <dbl>
 1 Afghanistan                      NA     NA     NA     NA   4.99   NA       NA
 2 Albania                          NA     NA     NA     NA  NA      NA       NA
 3 Algeria                          NA     NA     NA     NA  NA      NA       NA
 4 Andorra                          NA     NA     NA     NA  NA      NA       NA
 5 Angola                           NA     NA     NA     NA  NA      NA       NA
 6 Anguilla                         NA     NA     NA     NA  NA      NA       NA
 7 Antigua and Barbuda              NA     NA     NA     NA  NA      NA       NA
 8 Argentina                        NA     NA     NA     NA  NA      93.6     NA
 9 Armenia                          NA     NA     NA     NA  NA      NA       NA
10 Aruba                            NA     NA     NA     NA  NA      NA       NA
# ℹ 250 more rows
# ℹ abbreviated name: ¹​`Adult (15+) literacy rate (%). Female`
# ℹ 30 more variables: `1982` <dbl>, `1983` <dbl>, `1984` <dbl>, `1985` <dbl>,
#   `1986` <dbl>, `1987` <dbl>, `1988` <dbl>, `1989` <dbl>, `1990` <dbl>,
#   `1991` <dbl>, `1992` <dbl>, `1993` <dbl>, `1994` <dbl>, `1995` <dbl>,
#   `1996` <dbl>, `1997` <dbl>, `1998` <dbl>, `1999` <dbl>, `2000` <dbl>,
#   `2001` <dbl>, `2002` <dbl>, `2003` <dbl>, `2004` <dbl>, `2005` <dbl>, …

How might we want to restructure this data?

pivot_longer

# A tibble: 260 × 38
   Adult (15+) literacy rate …¹ `1975` `1976` `1977` `1978` `1979` `1980` `1981`
   <chr>                         <dbl>  <dbl>  <dbl>  <dbl>  <dbl>  <dbl>  <dbl>
 1 Afghanistan                      NA     NA     NA     NA   4.99   NA       NA
 2 Albania                          NA     NA     NA     NA  NA      NA       NA
 3 Algeria                          NA     NA     NA     NA  NA      NA       NA
 4 Andorra                          NA     NA     NA     NA  NA      NA       NA
 5 Angola                           NA     NA     NA     NA  NA      NA       NA
 6 Anguilla                         NA     NA     NA     NA  NA      NA       NA
 7 Antigua and Barbuda              NA     NA     NA     NA  NA      NA       NA
 8 Argentina                        NA     NA     NA     NA  NA      93.6     NA
 9 Armenia                          NA     NA     NA     NA  NA      NA       NA
10 Aruba                            NA     NA     NA     NA  NA      NA       NA
# ℹ 250 more rows
# ℹ abbreviated name: ¹​`Adult (15+) literacy rate (%). Female`
# ℹ 30 more variables: `1982` <dbl>, `1983` <dbl>, `1984` <dbl>, `1985` <dbl>,
#   `1986` <dbl>, `1987` <dbl>, `1988` <dbl>, `1989` <dbl>, `1990` <dbl>,
#   `1991` <dbl>, `1992` <dbl>, `1993` <dbl>, `1994` <dbl>, `1995` <dbl>,
#   `1996` <dbl>, `1997` <dbl>, `1998` <dbl>, `1999` <dbl>, `2000` <dbl>,
#   `2001` <dbl>, `2002` <dbl>, `2003` <dbl>, `2004` <dbl>, `2005` <dbl>, …
…
pivot_longer

litF |>
  rename(country = starts_with("Adult")) |>
  pivot_longer(
    cols = -country,
    names_to = "year",
    values_to = "literacy_rate"
  ) |>
  drop_na(literacy_rate)

# A tibble: 571 × 3
   country     year  literacy_rate
   <chr>       <chr>         <dbl>
 1 Afghanistan 1979           4.99
 2 Afghanistan 2011          13   
 3 Albania     2001          98.3 
 4 Albania     2008          94.7 
 5 Albania     2011          95.7 
 6 Algeria     1987          35.8 
 7 Algeria     2002          60.1 
 8 Algeria     2006          63.9 
 9 Angola      2001          54.2 
10 Angola      2011          58.6 
# ℹ 561 more rows

pivot_longer

litF |>
  rename(country = starts_with("Adult")) |>
  pivot_longer(
    cols = -country,
    names_to = "year",
    values_to = "literacy_rate",
    values_drop_na = T
  )

# A tibble: 571 × 3
   country     year  literacy_rate
   <chr>       <chr>         <dbl>
 1 Afghanistan 1979           4.99
 2 Afghanistan 2011          13   
 3 Albania     2001          98.3 
 4 Albania     2008          94.7 
 5 Albania     2011          95.7 
 6 Algeria     1987          35.8 
 7 Algeria     2002          60.1 
 8 Algeria     2006          63.9 
 9 Angola      2001          54.2 
10 Angola      2011          58.6 
# ℹ 561 more rows

Back to the dog data

sc_data |>
  pivot_longer(cols = c(sc_pre, sc_post),
               names_to = "stage",
               values_to = "score")

# A tibble: 568 × 4
     RID GroupAssignment stage   score
   <int> <chr>           <chr>   <dbl>
 1     1 Control         sc_pre   3.9 
 2     1 Control         sc_post  3.8 
 3     2 Direct          sc_pre   5.15
 4     2 Direct          sc_post  5.26
 5     3 Indirect        sc_pre   4.1 
 6     3 Indirect        sc_post  4.15
 7     4 Control         sc_pre   4.65
 8     4 Control         sc_post  5.1 
 9     5 Direct          sc_pre   3.65
10     5 Direct          sc_post  3.6 
# ℹ 558 more rows

Does the stage column only contain information about stage?

Back to the dog data

sc_data |>
  pivot_longer(cols = c(sc_pre, sc_post),
               names_to = c("measurement", "stage"),
               names_sep = "_",
               values_to = "score")

# A tibble: 568 × 5
     RID GroupAssignment measurement stage score
   <int> <chr>           <chr>       <chr> <dbl>
 1     1 Control         sc          pre    3.9 
 2     1 Control         sc          post   3.8 
 3     2 Direct          sc          pre    5.15
 4     2 Direct          sc          post   5.26
 5     3 Indirect        sc          pre    4.1 
 6     3 Indirect        sc          post   4.15
 7     4 Control         sc          pre    4.65
 8     4 Control         sc          post   5.1 
 9     5 Direct          sc          pre    3.65
10     5 Direct          sc          post   3.6 
# ℹ 558 more rows

Working with all the measurements

cleaned_data |>
  pivot_longer(cols = -c(RID, GroupAssignment),
               names_to = c("measurement", "stage"),
               names_sep = "_",
               values_to = "score")

# A tibble: 4,544 × 5
     RID GroupAssignment measurement stage score
   <int> <chr>           <chr>       <chr> <dbl>
 1     1 Control         pa          pre    3.2 
 2     1 Control         pa          post   3.8 
 3     1 Control         happiness   pre    2.33
 4     1 Control         happiness   post   3.33
 5     1 Control         sc          pre    3.9 
 6     1 Control         sc          post   3.8 
 7     1 Control         fs          pre    6.12
 8     1 Control         fs          post   6   
 9     1 Control         stress      pre    2   
10     1 Control         stress      post   2   
# ℹ 4,534 more rows
…
Reshaping data in R

litF |>
  rename(country = starts_with("Adult")) |>
  pivot_longer(
    cols = -country,
    names_to = "year",
    values_to = "literacy_rate"
  ) |>
  drop_na(literacy_rate)

# A tibble: 571 × 3
   country     year  literacy_rate
   <chr>       <chr>         <dbl>
 1 Afghanistan 1979           4.99
 2 Afghanistan 2011          13   
 3 Albania     2001          98.3 
 4 Albania     2008          94.7 
 5 Albania     2011          95.7 
 6 Algeria     1987          35.8 
 7 Algeria     2002          60.1 
 8 Algeria     2006          63.9 
 9 Angola      2001          54.2 
10 Angola      2011          58.6 
# ℹ 561 more rows
…
